0.0	115.0	115.0	0
0.0	115.0	0.0	50
0.0	115.0	0.0	100
0.0	115.0	0.0	150
0.0	115.0	0.0	200
0.0	115.0	0.0	250
0.0	115.0	0.0	300
0.0	115.0	0.0	350
0.0	115.0	0.0	400
0.0	115.0	0.0	450
0.0	116.0	1.0	500
0.0	115.0	-1.0	550
0.0	116.0	1.0	600
0.0	116.0	0.0	650
0.0	115.0	-1.0	700
0.0	116.0	1.0	750
0.0	116.0	0.0	800
0.0	116.0	0.0	850
0.0	116.0	0.0	900
0.0	116.0	0.0	950
0.0	116.0	0.0	1000
10.0	116.0	0.0	1050
10.0	116.0	0.0	1100
10.0	116.0	0.0	1150
10.0	115.0	-1.0	1200
10.0	114.0	-1.0	1250
10.0	112.0	-2.0	1300
10.0	111.0	-1.0	1350
10.0	110.0	-1.0	1400
10.0	108.0	-2.0	1450
10.0	107.0	-1.0	1500
10.0	106.0	-1.0	1550
10.0	104.0	-2.0	1600
10.0	104.0	0.0	1650
10.0	102.0	-2.0	1700
10.0	101.0	-1.0	1750
10.0	99.0	-2.0	1800
10.0	98.0	-1.0	1850
10.0	96.0	-2.0	1900
10.0	95.0	-1.0	1950
10.0	93.0	-2.0	2000
10.0	91.0	-2.0	2050
-10.0	90.0	-1.0	2100
-10.0	90.0	0.0	2150
-10.0	90.0	0.0	2200
-10.0	90.0	0.0	2250
-10.0	91.0	1.0	2300
-10.0	93.0	2.0	2350
-10.0	95.0	2.0	2400
-10.0	97.0	2.0	2450
-10.0	98.0	1.0	2500
-10.0	100.0	2.0	2550
-10.0	102.0	2.0	2600
-10.0	104.0	2.0	2650
-10.0	105.0	1.0	2700
-10.0	108.0	3.0	2750
-10.0	109.0	1.0	2800
-10.0	112.0	3.0	2850
-10.0	113.0	1.0	2900
-10.0	115.0	2.0	2950
-10.0	117.0	2.0	3000
-10.0	118.0	1.0	3050
-10.0	120.0	2.0	3100
10.0	122.0	2.0	3150
10.0	123.0	1.0	3200
10.0	123.0	0.0	3250
10.0	123.0	0.0	3300
10.0	122.0	-1.0	3350
10.0	120.0	-2.0	3400
10.0	120.0	0.0	3450
10.0	118.0	-2.0	3500
10.0	117.0	-1.0	3550
10.0	116.0	-1.0	3600
10.0	115.0	-1.0	3650
10.0	113.0	-2.0	3700
10.0	112.0	-1.0	3750
10.0	111.0	-1.0	3800
10.0	109.0	-2.0	3850
10.0	108.0	-1.0	3900
10.0	107.0	-1.0	3950
10.0	106.0	-1.0	4000
10.0	104.0	-2.0	4050
10.0	104.0	0.0	4100
10.0	102.0	-2.0	4150
-10.0	101.0	-1.0	4200
-10.0	100.0	-1.0	4250
-10.0	99.0	-1.0	4300
-10.0	101.0	2.0	4350
-10.0	103.0	2.0	4400
-10.0	104.0	1.0	4450
-10.0	106.0	2.0	4500
-10.0	108.0	2.0	4550
-10.0	109.0	1.0	4600
-10.0	111.0	2.0	4650
-10.0	112.0	1.0	4700
-10.0	115.0	3.0	4750
-10.0	116.0	1.0	4800
-10.0	117.0	1.0	4850
-10.0	119.0	2.0	4900
-10.0	121.0	2.0	4950
-10.0	123.0	2.0	5000
-10.0	125.0	2.0	5050
-10.0	126.0	1.0	5100
-10.0	127.0	1.0	5150
-10.0	129.0	2.0	5200
10.0	131.0	2.0	5250
10.0	133.0	2.0	5300
10.0	134.0	1.0	5350
10.0	133.0	-1.0	5400
10.0	132.0	-1.0	5450
10.0	131.0	-1.0	5500
10.0	130.0	-1.0	5550
10.0	129.0	-1.0	5600
10.0	128.0	-1.0	5650
10.0	126.0	-2.0	5700
10.0	125.0	-1.0	5750
10.0	124.0	-1.0	5800
10.0	123.0	-1.0	5850
10.0	122.0	-1.0	5900
10.0	120.0	-2.0	5950
10.0	119.0	-1.0	6000
10.0	118.0	-1.0	6050
10.0	117.0	-1.0	6100
10.0	115.0	-2.0	6150
10.0	114.0	-1.0	6200
-10.0	112.0	-2.0	6250
-10.0	112.0	0.0	6300
-10.0	112.0	0.0	6350
-10.0	113.0	1.0	6400
-10.0	115.0	2.0	6450
-10.0	116.0	1.0	6500
-10.0	118.0	2.0	6550
-10.0	120.0	2.0	6600
-10.0	122.0	2.0	6650
-10.0	123.0	1.0	6700
-10.0	125.0	2.0	6750
-10.0	126.0	1.0	6800
-10.0	129.0	3.0	6850
-10.0	130.0	1.0	6900
-10.0	132.0	2.0	6950
-10.0	134.0	2.0	7000
-10.0	136.0	2.0	7050
-10.0	138.0	2.0	7100
-10.0	139.0	1.0	7150
-10.0	141.0	2.0	7200
-10.0	143.0	2.0	7250
10.0	144.0	1.0	7300
10.0	145.0	1.0	7350
10.0	146.0	1.0	7400
10.0	145.0	-1.0	7450
10.0	144.0	-1.0	7500
10.0	143.0	-1.0	7550
10.0	142.0	-1.0	7600
10.0	141.0	-1.0	7650
10.0	139.0	-2.0	7700
10.0	139.0	0.0	7750
10.0	137.0	-2.0	7800
10.0	136.0	-1.0	7850
10.0	134.0	-2.0	7900
10.0	133.0	-1.0	7950
10.0	131.0	-2.0	8000
10.0	130.0	-1.0	8050
10.0	129.0	-1.0	8100
10.0	128.0	-1.0	8150
10.0	127.0	-1.0	8200
10.0	125.0	-2.0	8250
10.0	125.0	0.0	8300
-10.0	123.0	-2.0	8350
-10.0	122.0	-1.0	8400
-10.0	122.0	0.0	8450
-10.0	123.0	1.0	8500
-10.0	125.0	2.0	8550
-10.0	126.0	1.0	8600
-10.0	127.0	1.0	8650
-10.0	129.0	2.0	8700
-10.0	131.0	2.0	8750
-10.0	132.0	1.0	8800
-10.0	134.0	2.0	8850
-10.0	136.0	2.0	8900
-10.0	137.0	1.0	8950
-10.0	139.0	2.0	9000
-10.0	140.0	1.0	9050
-10.0	142.0	2.0	9100
-10.0	143.0	1.0	9150
-10.0	145.0	2.0	9200
-10.0	147.0	2.0	9250
-10.0	148.0	1.0	9300
-10.0	150.0	2.0	9350
10.0	151.0	1.0	9400
10.0	153.0	2.0	9450
10.0	153.0	0.0	9500
10.0	150.0	-3.0	9550
10.0	150.0	0.0	9600
10.0	149.0	-1.0	9650
10.0	148.0	-1.0	9700
10.0	147.0	-1.0	9750
10.0	145.0	-2.0	9800
10.0	144.0	-1.0	9850
10.0	143.0	-1.0	9900
10.0	142.0	-1.0	9950
10.0	141.0	-1.0	10000
