0.0	115.0	115.0	0
0.0	115.0	0.0	50
0.0	115.0	0.0	100
0.0	115.0	0.0	150
0.0	115.0	0.0	200
0.0	115.0	0.0	250
0.0	115.0	0.0	300
0.0	115.0	0.0	350
0.0	115.0	0.0	400
0.0	115.0	0.0	450
0.0	116.0	1.0	500
0.0	115.0	-1.0	550
0.0	116.0	1.0	600
0.0	116.0	0.0	650
0.0	116.0	0.0	700
0.0	116.0	0.0	750
0.0	116.0	0.0	800
0.0	116.0	0.0	850
0.0	117.0	1.0	900
0.0	116.0	-1.0	950
0.0	117.0	1.0	1000
0.0	117.0	0.0	1050
0.0	117.0	0.0	1100
0.0	117.0	0.0	1150
0.0	117.0	0.0	1200
0.0	117.0	0.0	1250
0.0	117.0	0.0	1300
0.0	117.0	0.0	1350
0.0	117.0	0.0	1400
0.0	118.0	1.0	1450
0.0	117.0	-1.0	1500
0.0	118.0	1.0	1550
0.0	118.0	0.0	1600
0.0	119.0	1.0	1650
0.0	119.0	0.0	1700
0.0	120.0	1.0	1750
0.0	120.0	0.0	1800
0.0	120.0	0.0	1850
0.0	120.0	0.0	1900
0.0	120.0	0.0	1950
0.0	121.0	1.0	2000
12.0	121.0	0.0	2050
12.0	120.0	-1.0	2100
12.0	120.0	0.0	2150
12.0	119.0	-1.0	2200
12.0	117.0	-2.0	2250
12.0	116.0	-1.0	2300
12.0	115.0	-1.0	2350
12.0	113.0	-2.0	2400
12.0	112.0	-1.0	2450
12.0	110.0	-2.0	2500
12.0	108.0	-2.0	2550
12.0	107.0	-1.0	2600
12.0	106.0	-1.0	2650
12.0	104.0	-2.0	2700
12.0	103.0	-1.0	2750
12.0	102.0	-1.0	2800
12.0	100.0	-2.0	2850
12.0	98.0	-2.0	2900
12.0	97.0	-1.0	2950
12.0	96.0	-1.0	3000
12.0	94.0	-2.0	3050
12.0	92.0	-2.0	3100
12.0	90.0	-2.0	3150
12.0	90.0	0.0	3200
12.0	89.0	-1.0	3250
12.0	87.0	-2.0	3300
12.0	85.0	-2.0	3350
12.0	83.0	-2.0	3400
12.0	82.0	-1.0	3450
12.0	80.0	-2.0	3500
12.0	79.0	-1.0	3550
12.0	76.0	-3.0	3600
12.0	75.0	-1.0	3650
12.0	73.0	-2.0	3700
12.0	72.0	-1.0	3750
12.0	71.0	-1.0	3800
12.0	69.0	-2.0	3850
12.0	67.0	-2.0	3900
12.0	65.0	-2.0	3950
12.0	64.0	-1.0	4000
12.0	62.0	-2.0	4050
-9.0	60.0	-2.0	4100
-9.0	58.0	-2.0	4150
-9.0	57.0	-1.0	4200
-9.0	58.0	1.0	4250
-9.0	60.0	2.0	4300
-9.0	62.0	2.0	4350
31.0	65.0	3.0	4516
31.0	72.0	7.0	4566
31.0	73.0	1.0	4616
31.0	72.0	-1.0	4666
31.0	70.0	-2.0	4716
31.0	65.0	-5.0	4766
31.0	61.0	-4.0	4816
31.0	57.0	-4.0	4866
31.0	52.0	-5.0	4916
31.0	44.0	-8.0	4966
31.0	37.0	-7.0	5016
31.0	33.0	-4.0	5066
31.0	32.0	-1.0	5116
31.0	27.0	-5.0	5166
31.0	24.0	-3.0	5216
-17.0	23.0	-1.0	5426
-17.0	8.0	-15.0	5476
-17.0	4.0	-4.0	5526
-17.0	3.0	-1.0	5576
-17.0	6.0	3.0	5626
-17.0	9.0	3.0	5676
-17.0	12.0	3.0	5726
-17.0	15.0	3.0	5776
-17.0	19.0	4.0	5826
-17.0	24.0	5.0	5876
-17.0	27.0	3.0	5926
-17.0	31.0	4.0	5976
-17.0	35.0	4.0	6026
-17.0	39.0	4.0	6076
-17.0	43.0	4.0	6126
-17.0	50.0	7.0	6176
-17.0	50.0	0.0	6226
-17.0	55.0	5.0	6276
-17.0	58.0	3.0	6326
-17.0	61.0	3.0	6376
-17.0	65.0	4.0	6426
-17.0	68.0	3.0	6476
-17.0	72.0	4.0	6526
-17.0	75.0	3.0	6576
-17.0	78.0	3.0	6626
-17.0	82.0	4.0	6676
-17.0	85.0	3.0	6726
-17.0	90.0	5.0	6776
-17.0	92.0	2.0	6826
-17.0	95.0	3.0	6876
-17.0	99.0	4.0	6926
-17.0	103.0	4.0	6976
-17.0	105.0	2.0	7026
-17.0	108.0	3.0	7076
-17.0	112.0	4.0	7126
-17.0	115.0	3.0	7176
-17.0	118.0	3.0	7226
-17.0	122.0	4.0	7276
-17.0	125.0	3.0	7326
-17.0	127.0	2.0	7376
-17.0	131.0	4.0	7426
15.0	134.0	3.0	7476
15.0	137.0	3.0	7526
15.0	139.0	2.0	7576
15.0	138.0	-1.0	7626
15.0	137.0	-1.0	7676
15.0	136.0	-1.0	7726
15.0	134.0	-2.0	7776
15.0	132.0	-2.0	7826
15.0	130.0	-2.0	7876
15.0	129.0	-1.0	7926
15.0	127.0	-2.0	7976
15.0	125.0	-2.0	8026
15.0	123.0	-2.0	8076
15.0	122.0	-1.0	8126
15.0	121.0	-1.0	8176
15.0	119.0	-2.0	8226
15.0	117.0	-2.0	8276
15.0	116.0	-1.0	8326
15.0	115.0	-1.0	8376
15.0	113.0	-2.0	8426
15.0	112.0	-1.0	8476
15.0	110.0	-2.0	8526
15.0	108.0	-2.0	8576
15.0	107.0	-1.0	8626
15.0	105.0	-2.0	8676
15.0	104.0	-1.0	8726
15.0	102.0	-2.0	8776
15.0	99.0	-3.0	8826
15.0	98.0	-1.0	8876
15.0	96.0	-2.0	8926
15.0	94.0	-2.0	8976
15.0	92.0	-2.0	9026
15.0	90.0	-2.0	9076
15.0	90.0	0.0	9126
15.0	88.0	-2.0	9176
15.0	86.0	-2.0	9226
15.0	85.0	-1.0	9276
15.0	83.0	-2.0	9326
15.0	82.0	-1.0	9376
15.0	82.0	0.0	9426
15.0	80.0	-2.0	9476
-29.0	79.0	-1.0	9526
-29.0	77.0	-2.0	9576
-29.0	78.0	1.0	9626
15.0	82.0	4.0	9834
15.0	98.0	16.0	9884
15.0	103.0	5.0	9934
15.0	104.0	1.0	9984
15.0	103.0	-1.0	10034
15.0	102.0	-1.0	10084
15.0	102.0	0.0	10134
15.0	101.0	-1.0	10184
15.0	100.0	-1.0	10234
15.0	98.0	-2.0	10284
15.0	96.0	-2.0	10334
15.0	94.0	-2.0	10384
15.0	92.0	-2.0	10434
15.0	90.0	-2.0	10484
15.0	90.0	0.0	10534
15.0	88.0	-2.0	10584
15.0	87.0	-1.0	10634
15.0	86.0	-1.0	10684
15.0	84.0	-2.0	10734
-19.0	84.0	0.0	10896
-19.0	82.0	-2.0	10946
-19.0	81.0	-1.0	10996
-19.0	83.0	2.0	11046
-19.0	87.0	4.0	11096
-19.0	90.0	3.0	11146
-19.0	92.0	2.0	11196
-19.0	97.0	5.0	11246
-19.0	99.0	2.0	11296
-19.0	103.0	4.0	11346
-19.0	106.0	3.0	11396
-19.0	110.0	4.0	11446
-19.0	113.0	3.0	11496
-19.0	116.0	3.0	11546
-19.0	119.0	3.0	11596
-19.0	122.0	3.0	11646
-19.0	125.0	3.0	11696
-19.0	129.0	4.0	11746
-19.0	131.0	2.0	11796
-19.0	134.0	3.0	11846
-19.0	139.0	5.0	11896
-19.0	141.0	2.0	11946
-19.0	144.0	3.0	11996
-19.0	147.0	3.0	12046
-19.0	150.0	3.0	12096
-19.0	153.0	3.0	12146
-19.0	155.0	2.0	12196
-19.0	158.0	3.0	12246
-19.0	160.0	2.0	12296
-19.0	162.0	2.0	12346
-19.0	165.0	3.0	12396
31.0	166.0	1.0	12550
31.0	176.0	10.0	12600
31.0	177.0	1.0	12650
31.0	176.0	-1.0	12700
31.0	174.0	-2.0	12750
31.0	170.0	-4.0	12800
31.0	165.0	-5.0	12850
31.0	161.0	-4.0	12900
31.0	157.0	-4.0	12950
31.0	153.0	-4.0	13000
31.0	149.0	-4.0	13050
31.0	145.0	-4.0	13100
31.0	141.0	-4.0	13150
31.0	136.0	-5.0	13200
31.0	130.0	-6.0	13250
31.0	127.0	-3.0	13300
31.0	123.0	-4.0	13350
31.0	119.0	-4.0	13400
31.0	114.0	-5.0	13450
31.0	109.0	-5.0	13500
31.0	105.0	-4.0	13550
31.0	100.0	-5.0	13600
31.0	97.0	-3.0	13650
-27.0	95.0	-2.0	13810
-27.0	88.0	-7.0	13860
-27.0	83.0	-5.0	13910
-27.0	84.0	1.0	13960
-27.0	90.0	6.0	14010
-27.0	92.0	2.0	14060
-27.0	97.0	5.0	14110
-27.0	100.0	3.0	14160
-27.0	104.0	4.0	14210
-27.0	110.0	6.0	14260
-27.0	113.0	3.0	14310
-27.0	118.0	5.0	14360
-27.0	122.0	4.0	14410
-27.0	126.0	4.0	14460
-27.0	131.0	5.0	14510
-27.0	136.0	5.0	14560
-27.0	140.0	4.0	14610
-27.0	145.0	5.0	14660
-27.0	148.0	3.0	14710
-27.0	153.0	5.0	14760
-27.0	158.0	5.0	14810
-27.0	160.0	2.0	14860
-27.0	163.0	3.0	14910
23.0	166.0	3.0	15042
23.0	178.0	12.0	15092
23.0	180.0	2.0	15142
23.0	180.0	0.0	15192
23.0	180.0	0.0	15242
23.0	177.0	-3.0	15292
23.0	173.0	-4.0	15342
23.0	170.0	-3.0	15392
23.0	167.0	-3.0	15442
23.0	165.0	-2.0	15492
23.0	161.0	-4.0	15542
23.0	158.0	-3.0	15592
23.0	155.0	-3.0	15642
23.0	153.0	-2.0	15692
23.0	150.0	-3.0	15742
23.0	147.0	-3.0	15792
23.0	144.0	-3.0	15842
23.0	141.0	-3.0	15892
23.0	138.0	-3.0	15942
23.0	134.0	-4.0	15992
23.0	131.0	-3.0	16042
23.0	129.0	-2.0	16092
23.0	126.0	-3.0	16142
23.0	123.0	-3.0	16192
23.0	120.0	-3.0	16242
23.0	117.0	-3.0	16292
23.0	115.0	-2.0	16342
23.0	112.0	-3.0	16392
23.0	109.0	-3.0	16442
23.0	106.0	-3.0	16492
23.0	104.0	-2.0	16542
23.0	100.0	-4.0	16592
23.0	98.0	-2.0	16642
23.0	94.0	-4.0	16692
23.0	91.0	-3.0	16742
23.0	90.0	-1.0	16792
23.0	86.0	-4.0	16842
-8.0	83.0	-3.0	16970
-8.0	78.0	-5.0	17020
-8.0	75.0	-3.0	17070
-8.0	75.0	0.0	17120
-8.0	76.0	1.0	17170
-8.0	77.0	1.0	17220
-8.0	78.0	1.0	17270
-8.0	80.0	2.0	17320
-8.0	82.0	2.0	17370
-8.0	83.0	1.0	17420
-8.0	86.0	3.0	17470
-8.0	88.0	2.0	17520
-8.0	90.0	2.0	17570
-8.0	90.0	0.0	17620
-8.0	92.0	2.0	17670
-8.0	94.0	2.0	17720
-8.0	96.0	2.0	17770
-8.0	98.0	2.0	17820
-8.0	100.0	2.0	17870
-8.0	102.0	2.0	17920
-8.0	104.0	2.0	17970
-8.0	105.0	1.0	18020
-8.0	108.0	3.0	18070
-8.0	110.0	2.0	18120
-8.0	112.0	2.0	18170
-8.0	113.0	1.0	18220
-8.0	115.0	2.0	18270
-8.0	117.0	2.0	18320
-8.0	119.0	2.0	18370
-8.0	120.0	1.0	18420
-8.0	122.0	2.0	18470
-8.0	123.0	1.0	18520
-8.0	125.0	2.0	18570
-8.0	127.0	2.0	18620
-8.0	128.0	1.0	18670
-8.0	130.0	2.0	18720
-8.0	131.0	1.0	18770
-8.0	132.0	1.0	18820
-8.0	134.0	2.0	18870
-8.0	136.0	2.0	18920
-8.0	138.0	2.0	18970
15.0	139.0	1.0	19020
15.0	140.0	1.0	19070
15.0	141.0	1.0	19120
15.0	140.0	-1.0	19170
15.0	139.0	-1.0	19220
15.0	137.0	-2.0	19270
15.0	136.0	-1.0	19320
15.0	134.0	-2.0	19370
15.0	132.0	-2.0	19420
15.0	130.0	-2.0	19470
15.0	129.0	-1.0	19520
15.0	127.0	-2.0	19570
15.0	125.0	-2.0	19620
15.0	123.0	-2.0	19670
15.0	122.0	-1.0	19720
15.0	121.0	-1.0	19770
15.0	119.0	-2.0	19820
15.0	117.0	-2.0	19870
15.0	115.0	-2.0	19920
15.0	113.0	-2.0	19970
15.0	112.0	-1.0	20020
15.0	109.0	-3.0	20070
15.0	108.0	-1.0	20120
15.0	105.0	-3.0	20170
15.0	104.0	-1.0	20220
15.0	102.0	-2.0	20270
15.0	100.0	-2.0	20320
15.0	98.0	-2.0	20370
15.0	97.0	-1.0	20420
15.0	95.0	-2.0	20470
15.0	93.0	-2.0	20520
15.0	91.0	-2.0	20570
15.0	90.0	-1.0	20620
15.0	89.0	-1.0	20670
-29.0	86.0	-3.0	20862
-29.0	82.0	-4.0	20912
-29.0	81.0	-1.0	20962
-29.0	83.0	2.0	21012
-29.0	88.0	5.0	21062
-29.0	91.0	3.0	21112
-29.0	95.0	4.0	21162
-29.0	100.0	5.0	21212
-29.0	105.0	5.0	21262
-29.0	110.0	5.0	21312
-29.0	115.0	5.0	21362
-29.0	119.0	4.0	21412
-29.0	123.0	4.0	21462
-29.0	127.0	4.0	21512
-29.0	132.0	5.0	21562
-29.0	137.0	5.0	21612
-29.0	141.0	4.0	21662
-29.0	145.0	4.0	21712
-29.0	150.0	5.0	21762
-29.0	153.0	3.0	21812
-29.0	157.0	4.0	21862
-29.0	159.0	2.0	21912
34.0	162.0	3.0	22070
34.0	174.0	12.0	22120
34.0	177.0	3.0	22170
34.0	178.0	1.0	22220
34.0	176.0	-2.0	22270
34.0	172.0	-4.0	22320
34.0	166.0	-6.0	22370
34.0	162.0	-4.0	22420
34.0	158.0	-4.0	22470
34.0	153.0	-5.0	22520
34.0	147.0	-6.0	22570
34.0	144.0	-3.0	22620
34.0	140.0	-4.0	22670
34.0	135.0	-5.0	22720
34.0	130.0	-5.0	22770
34.0	125.0	-5.0	22820
34.0	120.0	-5.0	22870
